<?xml version="1.0" encoding="UTF-8"?>
<svg xmlns="http://www.w3.org/2000/svg" xmlns:xlink="http://www.w3.org/1999/xlink" width="21.857pt" height="8.302pt" viewBox="0 0 21.857 8.302" version="1.1">
<defs>
<g>
<symbol overflow="visible" id="glyph0-0">
<path style="stroke:none;" d=""/>
</symbol>
<symbol overflow="visible" id="glyph0-1">
<path style="stroke:none;" d="M 1.796875 -0.921875 C 2.328125 -1.765625 2.5 -2.40625 2.625 -2.9375 C 2.984375 -4.3125 3.359375 -5.5 3.984375 -6.1875 C 4.09375 -6.3125 4.171875 -6.40625 4.5 -6.40625 C 5.1875 -6.40625 5.203125 -5.71875 5.203125 -5.578125 C 5.203125 -5.40625 5.15625 -5.265625 5.15625 -5.21875 C 5.15625 -5.140625 5.21875 -5.140625 5.21875 -5.140625 C 5.390625 -5.140625 5.65625 -5.25 5.90625 -5.4375 C 6.078125 -5.578125 6.171875 -5.671875 6.171875 -6.078125 C 6.171875 -6.625 5.890625 -7.03125 5.328125 -7.03125 C 5.015625 -7.03125 4.140625 -6.953125 3.15625 -5.96875 C 2.359375 -5.140625 1.890625 -3.34375 1.703125 -2.609375 C 1.53125 -1.90625 1.453125 -1.609375 1.140625 -1 C 1.078125 -0.890625 0.8125 -0.453125 0.671875 -0.3125 C 0.40625 -0.0625 0.3125 0.109375 0.3125 0.15625 C 0.3125 0.171875 0.328125 0.21875 0.40625 0.21875 C 0.4375 0.21875 0.640625 0.171875 0.90625 0.015625 C 1.078125 -0.09375 1.09375 -0.109375 1.328125 -0.34375 C 1.828125 -0.34375 2.171875 -0.25 2.796875 -0.0625 C 3.3125 0.0625 3.8125 0.21875 4.328125 0.21875 C 5.140625 0.21875 5.953125 -0.390625 6.265625 -0.828125 C 6.46875 -1.09375 6.53125 -1.34375 6.53125 -1.375 C 6.53125 -1.453125 6.46875 -1.453125 6.453125 -1.453125 C 6.296875 -1.453125 6.0625 -1.328125 5.890625 -1.21875 C 5.625 -1.046875 5.609375 -0.984375 5.546875 -0.8125 C 5.5 -0.65625 5.4375 -0.578125 5.390625 -0.515625 C 5.3125 -0.40625 5.296875 -0.40625 5.15625 -0.40625 C 4.671875 -0.40625 4.171875 -0.546875 3.515625 -0.734375 C 3.234375 -0.8125 2.6875 -0.96875 2.1875 -0.96875 C 2.0625 -0.96875 1.921875 -0.953125 1.796875 -0.921875 Z M 1.796875 -0.921875 "/>
</symbol>
<symbol overflow="visible" id="glyph1-0">
<path style="stroke:none;" d=""/>
</symbol>
<symbol overflow="visible" id="glyph1-1">
<path style="stroke:none;" d="M 2.328125 -4.4375 C 2.328125 -4.625 2.328125 -4.625 2.125 -4.625 C 1.671875 -4.1875 1.046875 -4.1875 0.765625 -4.1875 L 0.765625 -3.9375 C 0.921875 -3.9375 1.390625 -3.9375 1.765625 -4.125 L 1.765625 -0.578125 C 1.765625 -0.34375 1.765625 -0.25 1.078125 -0.25 L 0.8125 -0.25 L 0.8125 0 C 0.9375 0 1.796875 -0.03125 2.046875 -0.03125 C 2.265625 -0.03125 3.140625 0 3.296875 0 L 3.296875 -0.25 L 3.03125 -0.25 C 2.328125 -0.25 2.328125 -0.34375 2.328125 -0.578125 Z M 2.328125 -4.4375 "/>
</symbol>
<symbol overflow="visible" id="glyph2-0">
<path style="stroke:none;" d=""/>
</symbol>
<symbol overflow="visible" id="glyph2-1">
<path style="stroke:none;" d="M 6.84375 -3.265625 C 7 -3.265625 7.1875 -3.265625 7.1875 -3.453125 C 7.1875 -3.65625 7 -3.65625 6.859375 -3.65625 L 0.890625 -3.65625 C 0.75 -3.65625 0.5625 -3.65625 0.5625 -3.453125 C 0.5625 -3.265625 0.75 -3.265625 0.890625 -3.265625 Z M 6.859375 -1.328125 C 7 -1.328125 7.1875 -1.328125 7.1875 -1.53125 C 7.1875 -1.71875 7 -1.71875 6.84375 -1.71875 L 0.890625 -1.71875 C 0.75 -1.71875 0.5625 -1.71875 0.5625 -1.53125 C 0.5625 -1.328125 0.75 -1.328125 0.890625 -1.328125 Z M 6.859375 -1.328125 "/>
</symbol>
</g>
<clipPath id="clip1">
  <path d="M 7 3 L 11 3 L 11 8.300781 L 7 8.300781 Z M 7 3 "/>
</clipPath>
<clipPath id="clip2">
  <path d="M 14 3 L 21.855469 3 L 21.855469 6 L 14 6 Z M 14 3 "/>
</clipPath>
</defs>
<g id="surface1">
<g style="fill:rgb(0%,0%,0%);fill-opacity:1;">
  <use xlink:href="#glyph0-1" x="0" y="6.808"/>
</g>
<g clip-path="url(#clip1)" clip-rule="nonzero">
<g style="fill:rgb(0%,0%,0%);fill-opacity:1;">
  <use xlink:href="#glyph1-1" x="6.871" y="8.302"/>
</g>
</g>
<g clip-path="url(#clip2)" clip-rule="nonzero">
<g style="fill:rgb(0%,0%,0%);fill-opacity:1;">
  <use xlink:href="#glyph2-1" x="14.108" y="6.808"/>
</g>
</g>
</g>
</svg>
